C:\Users\Vincent\Desktop\Projet-PPIL\PPIL Client\main.cpp;C:\Users\Vincent\Desktop\Projet-PPIL\PPIL Client\x64\Debug\main.obj
C:\Users\Vincent\Desktop\Projet-PPIL\PPIL Client\ParsingService.cpp;C:\Users\Vincent\Desktop\Projet-PPIL\PPIL Client\x64\Debug\ParsingService.obj
C:\Users\Vincent\Desktop\Projet-PPIL\PPIL Client\Winsocket.cpp;C:\Users\Vincent\Desktop\Projet-PPIL\PPIL Client\x64\Debug\Winsocket.obj
