^C:\USERS\VINCENT\DESKTOP\PROJET-PPIL\PPIL CLIENT\X64\DEBUG\MAIN.OBJ|C:\USERS\VINCENT\DESKTOP\PROJET-PPIL\PPIL CLIENT\X64\DEBUG\PARSINGSERVICE.OBJ|C:\USERS\VINCENT\DESKTOP\PROJET-PPIL\PPIL CLIENT\X64\DEBUG\WINSOCKET.OBJ
C:\USERS\VINCENT\DESKTOP\PROJET-PPIL\PPIL CLIENT\X64\DEBUG\PPIL CLIENT.EXE
C:\USERS\VINCENT\DESKTOP\PROJET-PPIL\PPIL CLIENT\X64\DEBUG\PPIL CLIENT.ILK
C:\USERS\VINCENT\DESKTOP\PROJET-PPIL\PPIL CLIENT\X64\DEBUG\PPIL CLIENT.PDB
